┌─────────┬─────────────────────┬─────────────────────┬──────────────┬──────────────┬──────────────┬──────────────┐
│  type   │   pickup_datetime   │  dropOff_datetime   │ duration_min │ duration_sec │ PUlocationID │ DOlocationID │
│ varchar │      timestamp      │      timestamp      │    int64     │    int64     │    double    │    double    │
├─────────┼─────────────────────┼─────────────────────┼──────────────┼──────────────┼──────────────┼──────────────┤
│ fhv     │ 2020-03-06 06:22:36 │ 2020-03-06 06:31:04 │            9 │          508 │              │        127.0 │
│ fhv     │ 2020-03-06 06:10:07 │ 2020-03-06 06:11:33 │            1 │           86 │              │         42.0 │
│ fhv     │ 2020-03-06 06:18:52 │ 2020-03-06 06:31:17 │           13 │          745 │              │        168.0 │
│ fhv     │ 2020-03-06 06:48:52 │ 2020-03-06 06:49:42 │            1 │           50 │              │        159.0 │
│ fhv     │ 2020-03-06 06:16:55 │ 2020-03-06 06:31:37 │           15 │          882 │              │         42.0 │
│ fhv     │ 2020-03-06 06:31:13 │ 2020-03-06 06:48:13 │           17 │         1020 │              │        168.0 │
│ fhv     │ 2020-03-06 06:13:19 │ 2020-03-06 06:17:09 │            4 │          230 │              │        168.0 │
│ fhv     │ 2020-03-06 06:49:00 │ 2020-03-06 07:38:00 │           49 │         2940 │              │              │
│ fhv     │ 2020-03-06 06:21:00 │ 2020-03-06 06:57:00 │           36 │         2160 │              │              │
│ fhv     │ 2020-03-06 06:06:18 │ 2020-03-06 06:15:54 │            9 │          576 │              │        216.0 │
│ fhv     │ 2020-03-06 06:54:14 │ 2020-03-06 07:00:31 │            6 │          377 │              │         61.0 │
│ fhv     │ 2020-03-06 06:31:07 │ 2020-03-06 06:44:48 │           13 │          821 │              │         35.0 │
│ fhv     │ 2020-03-06 06:33:26 │ 2020-03-06 06:40:13 │            7 │          407 │              │         81.0 │
│ fhv     │ 2020-03-06 06:08:16 │ 2020-03-06 06:53:16 │           45 │         2700 │              │        174.0 │
│ fhv     │ 2020-03-06 06:35:51 │ 2020-03-06 06:50:13 │           15 │          862 │              │        174.0 │
│ fhv     │ 2020-03-06 06:16:51 │ 2020-03-06 06:31:29 │           15 │          878 │              │        265.0 │
│ fhv     │ 2020-03-06 06:49:53 │ 2020-03-06 07:04:18 │           15 │          865 │              │        265.0 │
│ fhv     │ 2020-03-06 06:26:15 │ 2020-03-06 06:47:20 │           21 │         1265 │              │        265.0 │
│ fhv     │ 2020-03-06 06:05:27 │ 2020-03-06 06:13:13 │            8 │          466 │              │        265.0 │
│ fhv     │ 2020-03-06 06:52:10 │ 2020-03-06 07:05:15 │           13 │          785 │              │        265.0 │
│  ·      │          ·          │          ·          │            · │           ·  │      ·       │          ·   │
│  ·      │          ·          │          ·          │            · │           ·  │      ·       │          ·   │
│  ·      │          ·          │          ·          │            · │           ·  │      ·       │          ·   │
│ fhv     │ 2020-07-12 09:12:26 │ 2020-07-12 09:35:12 │           23 │         1366 │              │        256.0 │
│ fhv     │ 2020-07-12 09:46:07 │ 2020-07-12 10:11:20 │           25 │         1513 │              │         61.0 │
│ fhv     │ 2020-07-12 10:18:48 │ 2020-07-12 10:19:00 │            1 │           12 │              │        228.0 │
│ fhv     │ 2020-07-13 09:12:11 │ 2020-07-13 09:25:28 │           13 │          797 │              │         92.0 │
│ fhv     │ 2020-07-13 09:27:08 │ 2020-07-13 09:40:50 │           13 │          822 │              │         92.0 │
│ fhv     │ 2020-07-13 11:26:42 │ 2020-07-13 11:58:35 │           32 │         1913 │              │        144.0 │
│ fhv     │ 2020-07-13 12:55:57 │ 2020-07-13 13:06:46 │           11 │          649 │              │         93.0 │
│ fhv     │ 2020-07-13 13:24:45 │ 2020-07-13 13:26:13 │            2 │           88 │              │         82.0 │
│ fhv     │ 2020-07-13 14:11:29 │ 2020-07-13 14:59:25 │           48 │         2876 │              │        171.0 │
│ fhv     │ 2020-07-13 15:19:56 │ 2020-07-13 15:41:36 │           22 │         1300 │              │        193.0 │
│ fhv     │ 2020-07-13 16:30:00 │ 2020-07-13 16:48:48 │           18 │         1128 │              │        171.0 │
│ fhv     │ 2020-07-13 17:00:02 │ 2020-07-13 17:15:18 │           15 │          916 │              │        192.0 │
│ fhv     │ 2020-07-14 08:59:34 │ 2020-07-14 09:02:06 │            3 │          152 │              │        192.0 │
│ fhv     │ 2020-07-14 09:25:56 │ 2020-07-14 09:27:36 │            2 │          100 │              │         82.0 │
│ fhv     │ 2020-07-14 10:18:21 │ 2020-07-14 10:56:28 │           38 │         2287 │              │        177.0 │
│ fhv     │ 2020-07-14 11:12:21 │ 2020-07-14 11:23:51 │           11 │          690 │              │         92.0 │
│ fhv     │ 2020-07-14 11:33:47 │ 2020-07-14 11:50:34 │           17 │         1007 │              │         92.0 │
│ fhv     │ 2020-07-14 11:52:44 │ 2020-07-14 12:10:48 │           18 │         1084 │              │         82.0 │
│ fhv     │ 2020-07-14 12:27:53 │ 2020-07-14 12:28:01 │            1 │            8 │              │        121.0 │
│ fhv     │ 2020-07-14 13:34:06 │ 2020-07-14 13:50:58 │           16 │         1012 │              │         92.0 │
├─────────┴─────────────────────┴─────────────────────┴──────────────┴──────────────┴──────────────┴──────────────┤
│ 15679790 rows (40 shown)                                                                              7 columns │
└─────────────────────────────────────────────────────────────────────────────────────────────────────────────────┘
