┌─────────────────┬───────────┬──────────────────────────┬───────────────────┬────────────────────┬────────────────────┐
│ individual_fare │  Borough  │           Zone           │ overall_avg_fare  │  borough_avg_fare  │   zone_avg_fare    │
│     double      │  varchar  │         varchar          │      double       │       double       │       double       │
├─────────────────┼───────────┼──────────────────────────┼───────────────────┼────────────────────┼────────────────────┤
│           24.86 │ Queens    │ Fresh Meadows            │ 13.06159529032841 │  35.48844799534929 │  31.60048340128122 │
│           18.11 │ Queens    │ Fresh Meadows            │ 13.06159529032841 │  35.48844799534929 │  31.60048340128122 │
│           38.26 │ Queens    │ Fresh Meadows            │ 13.06159529032841 │  35.48844799534929 │  31.60048340128122 │
│           21.95 │ Queens    │ Fresh Meadows            │ 13.06159529032841 │  35.48844799534929 │  31.60048340128122 │
│             6.5 │ Queens    │ Fresh Meadows            │ 13.06159529032841 │  35.48844799534929 │  31.60048340128122 │
│             4.5 │ Queens    │ Fresh Meadows            │ 13.06159529032841 │  35.48844799534929 │  31.60048340128122 │
│             9.0 │ Queens    │ Fresh Meadows            │ 13.06159529032841 │  35.48844799534929 │  31.60048340128122 │
│             6.5 │ Queens    │ Fresh Meadows            │ 13.06159529032841 │  35.48844799534929 │  31.60048340128122 │
│            10.0 │ Queens    │ Fresh Meadows            │ 13.06159529032841 │  35.48844799534929 │  31.60048340128122 │
│             6.0 │ Queens    │ Fresh Meadows            │ 13.06159529032841 │  35.48844799534929 │  31.60048340128122 │
│             6.0 │ Queens    │ Fresh Meadows            │ 13.06159529032841 │  35.48844799534929 │  31.60048340128122 │
│             6.0 │ Queens    │ Fresh Meadows            │ 13.06159529032841 │  35.48844799534929 │  31.60048340128122 │
│            32.5 │ Queens    │ Fresh Meadows            │ 13.06159529032841 │  35.48844799534929 │  31.60048340128122 │
│            35.0 │ Queens    │ Fresh Meadows            │ 13.06159529032841 │  35.48844799534929 │  31.60048340128122 │
│            28.5 │ Queens    │ Fresh Meadows            │ 13.06159529032841 │  35.48844799534929 │  31.60048340128122 │
│            11.5 │ Queens    │ Fresh Meadows            │ 13.06159529032841 │  35.48844799534929 │  31.60048340128122 │
│            42.2 │ Queens    │ Fresh Meadows            │ 13.06159529032841 │  35.48844799534929 │  31.60048340128122 │
│            36.2 │ Queens    │ Fresh Meadows            │ 13.06159529032841 │  35.48844799534929 │  31.60048340128122 │
│            50.0 │ Queens    │ Fresh Meadows            │ 13.06159529032841 │  35.48844799534929 │  31.60048340128122 │
│            34.2 │ Queens    │ Fresh Meadows            │ 13.06159529032841 │  35.48844799534929 │  31.60048340128122 │
│              ·  │   ·       │       ·                  │         ·         │          ·         │          ·         │
│              ·  │   ·       │       ·                  │         ·         │          ·         │          ·         │
│              ·  │   ·       │       ·                  │         ·         │          ·         │          ·         │
│            17.5 │ Manhattan │ West Chelsea/Hudson Ya…  │ 13.06159529032841 │ 11.077977846513221 │ 11.695497341635571 │
│           17.74 │ Manhattan │ West Chelsea/Hudson Ya…  │ 13.06159529032841 │ 11.077977846513221 │ 11.695497341635571 │
│            36.0 │ Manhattan │ West Chelsea/Hudson Ya…  │ 13.06159529032841 │ 11.077977846513221 │ 11.695497341635571 │
│             7.0 │ Manhattan │ West Chelsea/Hudson Ya…  │ 13.06159529032841 │ 11.077977846513221 │ 11.695497341635571 │
│           16.67 │ Manhattan │ West Chelsea/Hudson Ya…  │ 13.06159529032841 │ 11.077977846513221 │ 11.695497341635571 │
│             8.0 │ Manhattan │ West Chelsea/Hudson Ya…  │ 13.06159529032841 │ 11.077977846513221 │ 11.695497341635571 │
│            11.5 │ Manhattan │ West Chelsea/Hudson Ya…  │ 13.06159529032841 │ 11.077977846513221 │ 11.695497341635571 │
│             8.0 │ Manhattan │ West Chelsea/Hudson Ya…  │ 13.06159529032841 │ 11.077977846513221 │ 11.695497341635571 │
│            9.59 │ Manhattan │ West Chelsea/Hudson Ya…  │ 13.06159529032841 │ 11.077977846513221 │ 11.695497341635571 │
│            24.0 │ Manhattan │ West Chelsea/Hudson Ya…  │ 13.06159529032841 │ 11.077977846513221 │ 11.695497341635571 │
│             8.0 │ Manhattan │ West Chelsea/Hudson Ya…  │ 13.06159529032841 │ 11.077977846513221 │ 11.695497341635571 │
│             5.5 │ Manhattan │ West Chelsea/Hudson Ya…  │ 13.06159529032841 │ 11.077977846513221 │ 11.695497341635571 │
│            13.5 │ Manhattan │ West Chelsea/Hudson Ya…  │ 13.06159529032841 │ 11.077977846513221 │ 11.695497341635571 │
│             9.0 │ Manhattan │ West Chelsea/Hudson Ya…  │ 13.06159529032841 │ 11.077977846513221 │ 11.695497341635571 │
│             6.0 │ Manhattan │ West Chelsea/Hudson Ya…  │ 13.06159529032841 │ 11.077977846513221 │ 11.695497341635571 │
│           41.08 │ Manhattan │ West Chelsea/Hudson Ya…  │ 13.06159529032841 │ 11.077977846513221 │ 11.695497341635571 │
│             7.5 │ Manhattan │ West Chelsea/Hudson Ya…  │ 13.06159529032841 │ 11.077977846513221 │ 11.695497341635571 │
│             7.7 │ Manhattan │ West Chelsea/Hudson Ya…  │ 13.06159529032841 │ 11.077977846513221 │ 11.695497341635571 │
│             7.5 │ Manhattan │ West Chelsea/Hudson Ya…  │ 13.06159529032841 │ 11.077977846513221 │ 11.695497341635571 │
│            16.0 │ Manhattan │ West Chelsea/Hudson Ya…  │ 13.06159529032841 │ 11.077977846513221 │ 11.695497341635571 │
├─────────────────┴───────────┴──────────────────────────┴───────────────────┴────────────────────┴────────────────────┤
│ 55553378 rows (40 shown)                                                                                   6 columns │
└──────────────────────────────────────────────────────────────────────────────────────────────────────────────────────┘
